<?xml version="1.0" encoding="UTF-8" standalone="no"?>
<svg
   xmlns:ns6="http://ns.adobe.com/SaveForWeb/1.0/"
   xmlns:ns5="http://ns.adobe.com/Variables/1.0/"
   xmlns:ns4="http://ns.adobe.com/AdobeIllustrator/10.0/"
   xmlns:a="http://ns.adobe.com/AdobeSVGViewerExtensions/3.0/"
   xmlns:dc="http://purl.org/dc/elements/1.1/"
   xmlns:cc="http://creativecommons.org/ns#"
   xmlns:rdf="http://www.w3.org/1999/02/22-rdf-syntax-ns#"
   xmlns:svg="http://www.w3.org/2000/svg"
   xmlns="http://www.w3.org/2000/svg"
   xmlns:sodipodi="http://sodipodi.sourceforge.net/DTD/sodipodi-0.dtd"
   xmlns:inkscape="http://www.inkscape.org/namespaces/inkscape"
   ns4:viewOrigin="118.9321 582.0679"
   ns4:rulerOrigin="0 0"
   ns4:pageBounds="0 612 792 0"
   width="512"
   height="512"
   viewBox="0 0 512.00001 512.00001"
   overflow="visible"
   enable-background="new 0 0 552.068 552.068"
   xml:space="preserve"
   version="1.1"
   id="svg959"
   sodipodi:docname="repro.svg"
   inkscape:version="0.92.4 (5da689c313, 2019-01-14)"
   style="overflow:visible"><defs
   id="defs963" /><sodipodi:namedview
   pagecolor="#ffffff"
   bordercolor="#666666"
   borderopacity="1"
   objecttolerance="10"
   gridtolerance="10"
   guidetolerance="10"
   inkscape:pageopacity="0"
   inkscape:pageshadow="2"
   inkscape:window-width="1853"
   inkscape:window-height="1527"
   id="namedview961"
   showgrid="false"
   inkscape:zoom="1.2552161"
   inkscape:cx="273.58331"
   inkscape:cy="216.38186"
   inkscape:window-x="1391"
   inkscape:window-y="256"
   inkscape:window-maximized="0"
   inkscape:current-layer="g955"
   fit-margin-top="0"
   fit-margin-left="0"
   fit-margin-right="0"
   fit-margin-bottom="0" />
	<metadata
   id="metadata834">
		<ns5:variableSets>
			<ns5:variableSet
   varSetName="binding1"
   locked="none">
				<ns5:variables />
				<ns5:sampleDataSets />
			</ns5:variableSet>
		</ns5:variableSets>
		<ns6:sfw>
			<ns6:slices />
			<ns6:sliceSourceBounds
   y="30"
   x="118.932"
   width="552.068"
   height="552.068"
   bottomLeftOrigin="true" />
		</ns6:sfw>
	<rdf:RDF><cc:Work
     rdf:about=""><dc:format>image/svg+xml</dc:format><dc:type
       rdf:resource="http://purl.org/dc/dcmitype/StillImage" /><dc:title></dc:title></cc:Work></rdf:RDF></metadata>
	<g
   id="g955"
   ns4:extraneous="self"
   transform="translate(-6.375,65.079994)">
			
				
			
			<g
   id="g900"
   transform="matrix(0.94146202,0,0,0.94146202,0.3731808,-71.332713)">
					
						<linearGradient
   id="XMLID_6_"
   gradientUnits="userSpaceOnUse"
   x1="102.3462"
   y1="279.3511"
   x2="414.00629"
   y2="279.3511"
   gradientTransform="matrix(-1,0,0,1,535.6377,0)">
						<stop
   offset="0"
   style="stop-color:#FFFFFF"
   id="stop877" />
						<stop
   offset="0.0028"
   style="stop-color:#FEFEFE"
   id="stop879" />
						<stop
   offset="0.1595"
   style="stop-color:#BCBCBC"
   id="stop881" />
						<stop
   offset="0.3135"
   style="stop-color:#828282"
   id="stop883" />
						<stop
   offset="0.4609"
   style="stop-color:#545454"
   id="stop885" />
						<stop
   offset="0.6005"
   style="stop-color:#2F2F2F"
   id="stop887" />
						<stop
   offset="0.7302"
   style="stop-color:#151515"
   id="stop889" />
						<stop
   offset="0.8466"
   style="stop-color:#060606"
   id="stop891" />
						<stop
   offset="0.9382"
   style="stop-color:#000000"
   id="stop893" />
						<a:midPointStop
   offset="0"
   style="stop-color:#FFFFFF" />
						<a:midPointStop
   offset="0.3434"
   style="stop-color:#FFFFFF" />
						<a:midPointStop
   offset="0.9382"
   style="stop-color:#000000" />
					</linearGradient>
					<path
   d="m 121.631,322.3 h 311.66 v -85.899 h -311.66 z"
   id="path896"
   style="fill:url(#XMLID_6_)"
   inkscape:connector-curvature="0" />
					<path
   d="M 123.35,194.059 V 362.412 L 6.375,279.689 Z"
   id="path898"
   inkscape:connector-curvature="0" />
				</g>
			<g
   id="g926"
   transform="matrix(0.94146202,0,0,0.94146202,0.3731808,-71.332713)">
					<linearGradient
   id="XMLID_7_"
   gradientUnits="userSpaceOnUse"
   x1="123.293"
   y1="363.85889"
   x2="434.95361"
   y2="363.85889">
						<stop
   offset="0"
   style="stop-color:#FFFFFF"
   id="stop903" />
						<stop
   offset="0.0028"
   style="stop-color:#FEFEFE"
   id="stop905" />
						<stop
   offset="0.1595"
   style="stop-color:#BCBCBC"
   id="stop907" />
						<stop
   offset="0.3135"
   style="stop-color:#828282"
   id="stop909" />
						<stop
   offset="0.4609"
   style="stop-color:#545454"
   id="stop911" />
						<stop
   offset="0.6005"
   style="stop-color:#2F2F2F"
   id="stop913" />
						<stop
   offset="0.7302"
   style="stop-color:#151515"
   id="stop915" />
						<stop
   offset="0.8466"
   style="stop-color:#060606"
   id="stop917" />
						<stop
   offset="0.9382"
   style="stop-color:#000000"
   id="stop919" />
						<a:midPointStop
   offset="0"
   style="stop-color:#FFFFFF" />
						<a:midPointStop
   offset="0.3434"
   style="stop-color:#FFFFFF" />
						<a:midPointStop
   offset="0.9382"
   style="stop-color:#000000" />
					</linearGradient>
					<path
   d="M 434.954,406.808 H 123.293 v -85.899 h 311.661 z"
   id="path922"
   style="fill:url(#XMLID_7_)"
   inkscape:connector-curvature="0" />
					<path
   d="M 433.235,278.567 V 446.92 L 550.21,364.197 Z"
   id="path924"
   inkscape:connector-curvature="0" />
				</g>
			<g
   id="g952"
   transform="matrix(0.94146202,0,0,0.94146202,0.3731808,-71.332713)">
					<linearGradient
   id="XMLID_8_"
   gradientUnits="userSpaceOnUse"
   x1="123.293"
   y1="195.4897"
   x2="434.95361"
   y2="195.4897">
						<stop
   offset="0"
   style="stop-color:#FFFFFF"
   id="stop929" />
						<stop
   offset="0.0028"
   style="stop-color:#FEFEFE"
   id="stop931" />
						<stop
   offset="0.1595"
   style="stop-color:#BCBCBC"
   id="stop933" />
						<stop
   offset="0.3135"
   style="stop-color:#828282"
   id="stop935" />
						<stop
   offset="0.4609"
   style="stop-color:#545454"
   id="stop937" />
						<stop
   offset="0.6005"
   style="stop-color:#2F2F2F"
   id="stop939" />
						<stop
   offset="0.7302"
   style="stop-color:#151515"
   id="stop941" />
						<stop
   offset="0.8466"
   style="stop-color:#060606"
   id="stop943" />
						<stop
   offset="0.9382"
   style="stop-color:#000000"
   id="stop945" />
						<a:midPointStop
   offset="0"
   style="stop-color:#FFFFFF" />
						<a:midPointStop
   offset="0.3434"
   style="stop-color:#FFFFFF" />
						<a:midPointStop
   offset="0.9382"
   style="stop-color:#000000" />
					</linearGradient>
					<path
   d="M 434.954,238.439 H 123.293 V 152.54 h 311.661 z"
   id="path948"
   style="fill:url(#XMLID_8_)"
   inkscape:connector-curvature="0" />
					<path
   d="M 433.235,110.198 V 278.55 L 550.21,195.827 Z"
   id="path950"
   inkscape:connector-curvature="0" />
				</g>
		</g>
</svg>